# 3ds Max Wavefront OBJ Exporter v0.94b - (c)2007 guruware
# File Created: 15.08.2011 20:11:37

newmtl Pick
	Ns 10.0000
	Ni 1.5000
	d 1.0000
	Tr 1.0000
	Tf 1.0000 1.0000 1.0000 
	illum 2
	Ka 1.0000 1.0000 1.0000
	Kd 1.0000 1.0000 1.0000
	Ks 0.0000 0.0000 0.0000
	Ke 0.0000 0.0000 0.0000
	map_Ka maps\pickDifuse.jpg
	map_Kd maps\pickDifuse.jpg
	map_bump maps\pickDifuse.jpg
	bump maps\pickDifuse.jpg

newmtl Head
	Ns 10.0000
	Ni 1.5000
	d 1.0000
	Tr 1.0000
	Tf 1.0000 1.0000 1.0000 
	illum 2
	Ka 1.0000 1.0000 1.0000
	Kd 1.0000 1.0000 1.0000
	Ks 0.0000 0.0000 0.0000
	Ke 0.0000 0.0000 0.0000
	map_Ka maps\headDifuse.jpg
	map_Kd maps\headDifuse.jpg
	map_bump maps\headDifuse.jpg
	bump maps\headDifuse.jpg

newmtl Staff
	Ns 10.0000
	Ni 1.5000
	d 1.0000
	Tr 1.0000
	Tf 1.0000 1.0000 1.0000 
	illum 2
	Ka 1.0000 1.0000 1.0000
	Kd 1.0000 1.0000 1.0000
	Ks 0.0000 0.0000 0.0000
	Ke 0.0000 0.0000 0.0000
	map_Ka maps\staffDifuse.jpg
	map_Kd maps\staffDifuse.jpg
	map_bump maps\staffDifuse.jpg
	bump maps\staffDifuse.jpg

newmtl Handle
	Ns 10.0000
	Ni 1.5000
	d 1.0000
	Tr 1.0000
	Tf 1.0000 1.0000 1.0000 
	illum 2
	Ka 0.7176 0.5882 0.8000
	Kd 0.7176 0.5882 0.8000
	Ks 0.0000 0.0000 0.0000
	Ke 0.0000 0.0000 0.0000
	map_Ka maps\handleDifuse.jpg
	map_Kd maps\handleDifuse.jpg
	map_bump maps\handleBump.jpg
	bump maps\handleBump.jpg

newmtl ChainMetal
	Ns 10.0000
	Ni 1.5000
	d 1.0000
	Tr 1.0000
	Tf 1.0000 1.0000 1.0000 
	illum 2
	Ka 0.5882 0.5882 0.5882
	Kd 0.5882 0.5882 0.5882
	Ks 0.0000 0.0000 0.0000
	Ke 0.0000 0.0000 0.0000
	map_Ka maps\chain.jpg
	map_Kd maps\chain.jpg

newmtl Ball
	Ns 10.0000
	Ni 1.5000
	d 1.0000
	Tr 1.0000
	Tf 1.0000 1.0000 1.0000 
	illum 2
	Ka 0.8863 0.8863 0.9059
	Kd 0.8863 0.8863 0.9059
	Ks 0.0000 0.0000 0.0000
	Ke 0.0000 0.0000 0.0000
