# Max2Obj Version 4.0 Mar 10th, 2001
#
# object Plane03 to come ...
#
v  0.162925 1.219768 -7.622188
v  5.856362 1.219772 -7.713069
v  -0.986884 1.219768 -13.252867
v  5.856361 1.219777 -13.171241
v  -2.800524 1.219768 -6.893092
v  -4.958399 1.219772 -5.010016
v  -6.526131 1.219772 -13.679467
v  -5.993181 1.219772 -3.516706
v  -8.811011 1.219772 -14.559286
v  -6.327258 1.219772 -1.948850
v  -9.569522 1.219772 -13.908474
v  -8.174067 1.219768 -3.490542
v  -10.102627 1.219772 -12.350471
v  -9.092588 1.219776 -4.904602
v  -10.308984 1.219772 -11.265038
v  -9.902266 1.219768 -6.592460
v  -10.357711 1.219772 -9.759833
v  -10.278994 1.219772 -8.333271
v  6.644862 0.906692 -8.058933
v  6.644862 0.906696 -12.825377
v  -0.986884 -0.540929 -13.252866
v  0.162925 -0.540929 -7.622188
v  5.856361 -0.540933 -7.713070
v  5.856360 -0.540929 -13.171240
v  -2.800523 -0.540930 -6.893090
v  -6.526131 -0.540934 -13.679467
v  -4.958399 -0.540930 -5.010018
v  -5.993181 -0.540934 -3.516706
v  -8.811011 -0.540938 -14.559286
v  -6.327256 -0.540930 -1.948852
v  -9.569521 -0.540930 -13.908473
v  -10.102623 -0.540926 -12.350471
v  -8.174066 -0.540930 -3.490542
v  -10.308982 -0.540934 -11.265038
v  -9.092587 -0.540934 -4.904603
v  -10.357709 -0.540934 -9.759833
v  -9.902264 -0.540930 -6.592460
v  -10.278992 -0.540930 -8.333269
v  6.644863 -0.227853 -8.058934
v  6.644862 -0.227853 -12.825376
v  -10.568326 0.339415 -15.705868
v  -11.303629 0.339423 -14.703499
v  -10.574183 0.339419 -3.054528
v  -9.086832 0.339423 -1.527171
v  -12.140335 0.339419 -12.788824
v  -11.519304 0.339423 -4.604518
v  -12.575859 0.339419 -11.265038
v  -12.328010 0.339419 -6.372406
v  -12.624584 0.339423 -9.759834
v  -12.682780 0.339423 -8.333273
v  -7.192488 0.339423 -0.489463
v  -6.087029 0.339423 -0.254462
v  -10.190448 0.339419 -15.887875
v  3.908867 0.337118 20.369892
v  3.621698 -0.147836 20.369894
v  2.869881 -0.447553 20.369894
v  1.940585 -0.447557 20.369892
v  1.188770 -0.147840 20.369892
v  0.901602 0.337126 20.369892
v  1.188768 0.822075 20.369894
v  1.940585 1.121792 20.369894
v  2.869881 1.121792 20.369894
v  3.621696 0.822075 20.369892
v  3.696486 0.337122 14.723289
v  3.449878 -0.079336 14.723288
v  2.804252 -0.336727 14.723289
v  2.006215 -0.336719 14.723291
v  1.360587 -0.079340 14.723291
v  1.113980 0.337118 14.723288
v  1.360587 0.753579 14.723289
v  2.006213 1.010963 14.723289
v  2.804252 1.010963 14.723291
v  3.449880 0.753575 14.723289
v  3.996313 0.337118 9.076683
v  3.692444 -0.176041 9.076689
v  2.896903 -0.493190 9.076685
v  1.913559 -0.493190 9.076687
v  1.118019 -0.176037 9.076685
v  0.814149 0.337118 9.076685
v  1.118019 0.850281 9.076685
v  1.913560 1.167430 9.076685
v  2.896904 1.167430 9.076683
v  3.692445 0.850281 9.076685
v  3.908861 0.337118 -7.863129
v  3.621693 -0.147836 -7.863128
v  2.869878 -0.447557 -7.863128
v  1.940583 -0.447553 -7.863127
v  1.188766 -0.147832 -7.863129
v  0.901597 0.337118 -7.863129
v  1.188767 0.822071 -7.863129
v  1.940582 1.121797 -7.863127
v  2.869878 1.121792 -7.863129
v  3.621694 0.822075 -7.863128
v  3.449877 -0.079336 8.460094
v  3.696485 0.337122 8.460094
v  2.804251 -0.336723 8.460096
v  2.006212 -0.336727 8.460094
v  1.360585 -0.079344 8.460094
v  1.113978 0.337118 8.460094
v  1.360586 0.753575 8.460094
v  2.006212 1.010959 8.460094
v  2.804251 1.010963 8.460096
v  3.449878 0.753575 8.460094
v  3.449877 -0.079340 9.484787
v  3.696485 0.337122 9.484787
v  2.804251 -0.336723 9.484787
v  2.006212 -0.336723 9.484787
v  1.360585 -0.079336 9.484785
v  1.113978 0.337122 9.484787
v  1.360586 0.753579 9.484785
v  2.006213 1.010963 9.484785
v  2.804251 1.010967 9.484787
v  3.449878 0.753579 9.484787
v  3.009644 1.219772 -10.442154
v  3.009644 1.219772 -10.442154
v  3.009644 1.219772 -10.442154
v  3.039096 0.084421 20.369894
v  3.188733 0.337118 20.369892
v  3.039097 0.589819 20.369894
v  2.647348 0.745993 20.369894
v  2.163118 0.745989 20.369892
v  1.771368 0.589814 20.369892
v  1.621735 0.337118 20.369892
v  1.771369 0.084425 20.369894
v  2.163119 -0.071749 20.369892
v  2.647346 -0.071754 20.369892
v  3.039097 0.084421 21.325314
v  3.188733 0.337122 21.325312
v  3.039097 0.589814 21.325314
v  2.647348 0.745993 21.325317
v  2.163120 0.745989 21.325312
v  1.771369 0.589814 21.325312
v  1.621734 0.337118 21.325312
v  1.771369 0.084425 21.325314
v  2.163118 -0.071745 21.325312
v  2.647347 -0.071754 21.325312
v  -2.623326 1.170567 -12.984589
v  4.363715 1.170567 -12.984588
v  -2.623326 1.170571 -13.616750
v  4.363716 1.170571 -13.616749
v  -2.623327 -0.476176 -12.984589
v  4.363715 -0.476176 -12.984589
v  -2.623327 -0.476176 -13.616749
v  4.363716 -0.476176 -13.616749
v  2.200846 1.168470 -13.643117
v  2.307824 0.966842 -14.343597
v  1.666288 0.722696 -14.184740
v  1.460598 0.644417 -13.643117
v  2.865132 1.178930 -13.643116
v  2.659444 1.100655 -14.184741
v  2.609709 0.351638 -14.662654
v  1.766424 0.030725 -14.409089
v  1.475536 -0.079975 -13.643118
v  3.461850 0.675935 -13.643117
v  3.170960 0.565235 -14.409088
v  2.919477 -0.260558 -14.343597
v  2.277941 -0.504695 -14.184740
v  2.072251 -0.582974 -13.643118
v  3.476787 -0.048465 -13.643120
v  3.271098 -0.126740 -14.184741
v  2.736537 -0.572514 -13.643118
v  2.223359 1.146288 -13.805772
v  1.925102 1.032790 -13.805774
v  1.921855 1.062299 -13.643116
v  2.017905 0.856514 -14.343599
v  2.327675 0.244314 -14.662654
v  2.629560 -0.370886 -14.343597
v  2.714025 -0.550328 -13.805772
v  3.012282 -0.436830 -13.805773
v  3.015531 -0.466338 -13.643116
v  2.120314 0.748905 -14.190452
v  2.049095 0.881887 -13.743825
v  2.048809 0.899423 -13.644773
v  2.250819 0.976299 -13.644775
v  2.265317 0.964177 -13.743825
v  2.328219 0.828020 -14.190452
v  2.568701 0.336036 -14.445553
v  2.817069 -0.152945 -14.190452
v  2.888288 -0.285931 -13.743825
v  2.888575 -0.303472 -13.644773
v  2.686563 -0.380347 -13.644775
v  2.672066 -0.368217 -13.743826
v  2.609165 -0.232068 -14.190454
v  2.368682 0.259916 -14.445555
v  -11.303629 0.339423 -14.703499
v  -10.568326 0.339415 -15.705868
v  -10.568326 0.339415 -15.705868
v  -9.086832 0.339423 -1.527171
v  -10.574183 0.339419 -3.054528
v  -10.574183 0.339419 -3.054528
v  -12.140335 0.339419 -12.788824
v  -11.303629 0.339423 -14.703499
v  -11.303629 0.339423 -14.703499
v  -10.574183 0.339419 -3.054528
v  -11.519304 0.339423 -4.604518
v  -11.519304 0.339423 -4.604518
v  -12.575859 0.339419 -11.265038
v  -12.140335 0.339419 -12.788824
v  -12.140335 0.339419 -12.788824
v  -11.519304 0.339423 -4.604518
v  -12.328010 0.339419 -6.372406
v  -12.328010 0.339419 -6.372406
v  -12.624584 0.339423 -9.759834
v  -12.575859 0.339419 -11.265038
v  -12.575859 0.339419 -11.265038
v  -12.328010 0.339419 -6.372406
v  -12.682780 0.339423 -8.333273
v  -12.682780 0.339423 -8.333273
v  -12.682780 0.339423 -8.333273
v  -12.624584 0.339423 -9.759834
v  -12.624584 0.339423 -9.759834
v  -7.192488 0.339423 -0.489463
v  -9.086832 0.339423 -1.527171
v  -6.087029 0.339423 -0.254462
v  -7.192488 0.339423 -0.489463
v  -10.190448 0.339419 -15.887875
v  -10.568326 0.339415 -15.705868
v  -2.800523 -0.540930 -6.893090
v  -2.800524 1.219768 -6.893092
v  -4.958399 1.219772 -5.010016
v  -4.958399 1.219772 -5.010016
v  -4.958399 -0.540930 -5.010018
v  -2.800523 -0.540930 -6.893090
v  -4.958399 -0.540930 -5.010018
v  -4.958399 1.219772 -5.010016
v  -5.993181 1.219772 -3.516706
v  -5.993181 1.219772 -3.516706
v  -5.993181 -0.540934 -3.516706
v  -4.958399 -0.540930 -5.010018
v  -5.993181 -0.540934 -3.516706
v  -5.993181 1.219772 -3.516706
v  -6.327258 1.219772 -1.948850
v  -6.327258 1.219772 -1.948850
v  -6.327256 -0.540930 -1.948852
v  -5.993181 -0.540934 -3.516706
v  0.162925 -0.540929 -7.622188
v  0.162925 1.219768 -7.622188
v  -2.800524 1.219768 -6.893092
v  -2.800524 1.219768 -6.893092
v  -2.800523 -0.540930 -6.893090
v  0.162925 -0.540929 -7.622188
v  0.162925 1.219768 -7.622188
v  0.162925 1.219768 -7.622188
v  0.162925 -0.540929 -7.622188
v  -0.986884 -0.540929 -13.252866
v  -0.986884 1.219768 -13.252867
v  -0.986884 -0.540929 -13.252866
v  -6.526131 -0.540934 -13.679467
v  -6.526131 1.219772 -13.679467
v  -0.986884 1.219768 -13.252867
v  -0.986884 1.219768 -13.252867
v  -0.986884 -0.540929 -13.252866
v  -6.526131 -0.540934 -13.679467
v  -8.811011 -0.540938 -14.559286
v  -8.811011 1.219772 -14.559286
v  -6.526131 1.219772 -13.679467
v  -6.526131 1.219772 -13.679467
v  -6.526131 -0.540934 -13.679467
v  -8.811011 -0.540938 -14.559286
v  -8.811011 -0.540938 -14.559286
v  -10.190448 0.339419 -15.887875
v  -8.811011 1.219772 -14.559286
v  -6.327258 1.219772 -1.948850
v  -6.087029 0.339423 -0.254462
v  -6.327256 -0.540930 -1.948852
v  1.188768 0.822075 20.369894
v  1.360587 0.753579 14.723289
v  1.188768 0.822075 20.369894
v  1.360586 0.753579 9.484785
v  1.360586 0.753579 9.484785
v  1.360587 0.753579 14.723289
v  1.360586 0.753575 8.460094
v  1.360586 0.753575 8.460094
v  1.118019 0.850281 9.076685
v  1.188767 0.822071 -7.863129
v  1.360586 0.753575 8.460094
v  1.360586 0.753575 8.460094
v  1.118019 0.850281 9.076685
v  1.360586 0.753579 9.484785
v  1.360586 0.753579 9.484785
v  3.621698 -0.147836 20.369894
v  3.908867 0.337118 20.369892
v  3.621698 -0.147836 20.369894
v  3.908867 0.337118 20.369892
v  3.621696 0.822075 20.369892
v  3.908867 0.337118 20.369892
v  3.621696 0.822075 20.369892
v  2.869881 1.121792 20.369894
v  3.621696 0.822075 20.369892
v  2.869881 1.121792 20.369894
v  1.940585 1.121792 20.369894
v  2.869881 1.121792 20.369894
v  1.940585 1.121792 20.369894
v  1.188768 0.822075 20.369894
v  1.940585 1.121792 20.369894
v  1.188768 0.822075 20.369894
v  0.901602 0.337126 20.369892
v  1.188768 0.822075 20.369894
v  0.901602 0.337126 20.369892
v  1.188770 -0.147840 20.369892
v  0.901602 0.337126 20.369892
v  1.188770 -0.147840 20.369892
v  1.940585 -0.447557 20.369892
v  1.188770 -0.147840 20.369892
v  1.940585 -0.447557 20.369892
v  2.869881 -0.447553 20.369894
v  1.940585 -0.447557 20.369892
v  2.869881 -0.447553 20.369894
v  3.621698 -0.147836 20.369894
v  2.869881 -0.447553 20.369894
v  3.039096 0.084421 20.369894
v  3.188733 0.337118 20.369892
v  3.188733 0.337122 21.325312
v  3.188733 0.337122 21.325312
v  3.039097 0.084421 21.325314
v  3.039096 0.084421 20.369894
v  3.188733 0.337118 20.369892
v  3.039097 0.589819 20.369894
v  3.039097 0.589814 21.325314
v  3.039097 0.589814 21.325314
v  3.188733 0.337122 21.325312
v  3.188733 0.337118 20.369892
v  3.039097 0.589819 20.369894
v  2.647348 0.745993 20.369894
v  2.647348 0.745993 21.325317
v  2.647348 0.745993 21.325317
v  3.039097 0.589814 21.325314
v  3.039097 0.589819 20.369894
v  2.647348 0.745993 20.369894
v  2.163118 0.745989 20.369892
v  2.163120 0.745989 21.325312
v  2.163120 0.745989 21.325312
v  2.647348 0.745993 21.325317
v  2.647348 0.745993 20.369894
v  2.163118 0.745989 20.369892
v  1.771368 0.589814 20.369892
v  1.771369 0.589814 21.325312
v  1.771369 0.589814 21.325312
v  2.163120 0.745989 21.325312
v  2.163118 0.745989 20.369892
v  1.771368 0.589814 20.369892
v  1.621735 0.337118 20.369892
v  1.621734 0.337118 21.325312
v  1.621734 0.337118 21.325312
v  1.771369 0.589814 21.325312
v  1.771368 0.589814 20.369892
v  1.621735 0.337118 20.369892
v  1.771369 0.084425 20.369894
v  1.771369 0.084425 21.325314
v  1.771369 0.084425 21.325314
v  1.621734 0.337118 21.325312
v  1.621735 0.337118 20.369892
v  1.771369 0.084425 20.369894
v  2.163119 -0.071749 20.369892
v  2.163118 -0.071745 21.325312
v  2.163118 -0.071745 21.325312
v  1.771369 0.084425 21.325314
v  1.771369 0.084425 20.369894
v  2.163119 -0.071749 20.369892
v  2.647346 -0.071754 20.369892
v  2.647347 -0.071754 21.325312
v  2.647347 -0.071754 21.325312
v  2.163118 -0.071745 21.325312
v  2.163119 -0.071749 20.369892
v  2.647346 -0.071754 20.369892
v  3.039096 0.084421 20.369894
v  3.039097 0.084421 21.325314
v  3.039097 0.084421 21.325314
v  2.647347 -0.071754 21.325312
v  2.647346 -0.071754 20.369892
v  4.363715 1.170567 -12.984588
v  4.363715 -0.476176 -12.984589
v  4.363716 -0.476176 -13.616749
v  4.363716 -0.476176 -13.616749
v  4.363716 1.170571 -13.616749
v  4.363715 1.170567 -12.984588
v  4.363716 1.170571 -13.616749
v  4.363716 -0.476176 -13.616749
v  -2.623327 -0.476176 -13.616749
v  -2.623327 -0.476176 -13.616749
v  -2.623326 1.170571 -13.616750
v  4.363716 1.170571 -13.616749
v  -2.623326 1.170571 -13.616750
v  -2.623327 -0.476176 -13.616749
v  -2.623327 -0.476176 -12.984589
v  -2.623327 -0.476176 -12.984589
v  -2.623326 1.170567 -12.984589
v  -2.623326 1.170571 -13.616750
v  1.666288 0.722696 -14.184740
v  1.666288 0.722696 -14.184740
v  1.766424 0.030725 -14.409089
v  1.766424 0.030725 -14.409089
v  2.327675 0.244314 -14.662654
v  2.327675 0.244314 -14.662654
v  1.766424 0.030725 -14.409089
v  1.766424 0.030725 -14.409089
v  2.609709 0.351638 -14.662654
v  3.170960 0.565235 -14.409088
v  3.170960 0.565235 -14.409088
v  3.271098 -0.126740 -14.184741
v  3.271098 -0.126740 -14.184741
v  3.271098 -0.126740 -14.184741
v  2.368682 0.259916 -14.445555
v  2.568701 0.336036 -14.445553
v  2.368682 0.259916 -14.445555
v  2.200846 1.168470 -13.643117
v  2.223359 1.146288 -13.805772
v  2.265317 0.964177 -13.743825
v  2.265317 0.964177 -13.743825
v  2.250819 0.976299 -13.644775
v  2.200846 1.168470 -13.643117
v  2.223359 1.146288 -13.805772
v  2.307824 0.966842 -14.343597
v  2.328219 0.828020 -14.190452
v  2.328219 0.828020 -14.190452
v  2.265317 0.964177 -13.743825
v  2.223359 1.146288 -13.805772
v  2.307824 0.966842 -14.343597
v  2.609709 0.351638 -14.662654
v  2.568701 0.336036 -14.445553
v  2.568701 0.336036 -14.445553
v  2.328219 0.828020 -14.190452
v  2.307824 0.966842 -14.343597
v  2.609709 0.351638 -14.662654
v  2.568701 0.336036 -14.445553
v  2.609709 0.351638 -14.662654
v  2.736537 -0.572514 -13.643118
v  2.714025 -0.550328 -13.805772
v  2.672066 -0.368217 -13.743826
v  2.672066 -0.368217 -13.743826
v  2.686563 -0.380347 -13.644775
v  2.736537 -0.572514 -13.643118
v  2.714025 -0.550328 -13.805772
v  2.629560 -0.370886 -14.343597
v  2.609165 -0.232068 -14.190454
v  2.609165 -0.232068 -14.190454
v  2.672066 -0.368217 -13.743826
v  2.714025 -0.550328 -13.805772
v  2.629560 -0.370886 -14.343597
v  2.609165 -0.232068 -14.190454
v  2.629560 -0.370886 -14.343597
# 441 vertices

vt  0.317869 0.411162 0.000000
vt  0.459276 0.407169 0.000000
vt  0.290327 0.546033 0.000000
vt  0.459276 0.550248 0.000000
vt  0.246885 0.393698 0.000000
vt  0.195198 0.348593 0.000000
vt  0.157646 0.556251 0.000000
vt  0.170412 0.312824 0.000000
vt  0.097705 0.579416 0.000000
vt  0.158430 0.272003 0.000000
vt  0.081278 0.562213 0.000000
vt  0.116419 0.311293 0.000000
vt  0.070145 0.524420 0.000000
vt  0.095414 0.345770 0.000000
vt  0.065979 0.498382 0.000000
vt  0.076778 0.386497 0.000000
vt  0.065481 0.462318 0.000000
vt  0.067754 0.428193 0.000000
vt  0.476995 0.421623 0.000000
vt  0.476995 0.535793 0.000000
vt  0.709637 0.546033 0.000000
vt  0.682096 0.411162 0.000000
vt  0.540689 0.407169 0.000000
vt  0.540688 0.550248 0.000000
vt  0.753079 0.393698 0.000000
vt  0.842318 0.556251 0.000000
vt  0.804766 0.348593 0.000000
vt  0.829552 0.312824 0.000000
vt  0.902287 0.579415 0.000000
vt  0.841534 0.272003 0.000000
vt  0.918715 0.562214 0.000000
vt  0.929843 0.524420 0.000000
vt  0.883545 0.311293 0.000000
vt  0.934003 0.498381 0.000000
vt  0.904550 0.345770 0.000000
vt  0.934494 0.462318 0.000000
vt  0.923186 0.386497 0.000000
vt  0.932217 0.428193 0.000000
vt  0.522969 0.421623 0.000000
vt  0.522969 0.535793 0.000000
vt  0.036589 0.607423 0.000000
vt  0.022849 0.581069 0.000000
vt  0.047353 0.297962 0.000000
vt  0.079441 0.258245 0.000000
vt  0.007622 0.533404 0.000000
vt  0.026703 0.336232 0.000000
vt  0.000000 0.496279 0.000000
vt  0.008800 0.379085 0.000000
vt  0.000158 0.460206 0.000000
vt  0.000069 0.426008 0.000000
vt  0.120372 0.226752 0.000000
vt  0.144702 0.215387 0.000000
vt  0.044253 0.613909 0.000000
vt  0.962566 0.808172 0.000000
vt  0.962566 0.842790 0.000000
vt  0.962566 0.875087 0.000000
vt  0.962566 0.905603 0.000000
vt  0.962566 0.937050 0.000000
vt  0.962566 0.969898 0.000000
vt  0.962566 0.995960 0.000000
vt  0.962566 0.713156 0.000000
vt  0.962566 0.744592 0.000000
vt  0.962566 0.775222 0.000000
vt  0.771518 0.808172 0.000000
vt  0.771518 0.843736 0.000000
vt  0.771518 0.876236 0.000000
vt  0.771518 0.905603 0.000000
vt  0.771518 0.936560 0.000000
vt  0.771518 0.969898 0.000000
vt  0.771518 0.995960 0.000000
vt  0.771518 0.714305 0.000000
vt  0.771518 0.743443 0.000000
vt  0.771518 0.774732 0.000000
vt  0.580507 0.808172 0.000000
vt  0.580507 0.842400 0.000000
vt  0.580507 0.876236 0.000000
vt  0.580507 0.905603 0.000000
vt  0.580507 0.936560 0.000000
vt  0.580507 0.969898 0.000000
vt  0.580507 0.995960 0.000000
vt  0.580507 0.714305 0.000000
vt  0.580507 0.743443 0.000000
vt  0.580507 0.774732 0.000000
vt  0.007477 0.808172 0.000000
vt  0.007477 0.842790 0.000000
vt  0.007477 0.876236 0.000000
vt  0.007477 0.905373 0.000000
vt  0.007477 0.936560 0.000000
vt  0.007477 0.969898 0.000000
vt  0.007477 0.995960 0.000000
vt  0.007477 0.714305 0.000000
vt  0.007477 0.743443 0.000000
vt  0.007477 0.774732 0.000000
vt  0.559650 0.843736 0.000000
vt  0.559650 0.808172 0.000000
vt  0.559650 0.876236 0.000000
vt  0.559650 0.905603 0.000000
vt  0.559650 0.936560 0.000000
vt  0.559650 0.969898 0.000000
vt  0.559650 0.995960 0.000000
vt  0.559650 0.714305 0.000000
vt  0.559650 0.743443 0.000000
vt  0.559650 0.774732 0.000000
vt  0.594312 0.843736 0.000000
vt  0.594312 0.808172 0.000000
vt  0.594312 0.876236 0.000000
vt  0.594312 0.905603 0.000000
vt  0.594312 0.936560 0.000000
vt  0.594312 0.969898 0.000000
vt  0.594312 0.995960 0.000000
vt  0.594312 0.714305 0.000000
vt  0.594312 0.743443 0.000000
vt  0.594312 0.774732 0.000000
vt  0.000000 0.000000 0.000000
vt  0.000000 0.000000 0.000000
vt  0.000000 0.000000 0.000000
vt  0.776174 0.116751 0.000000
vt  0.792052 0.162114 0.000000
vt  0.776174 0.207477 0.000000
vt  0.734604 0.235513 0.000000
vt  0.683221 0.235513 0.000000
vt  0.641650 0.207478 0.000000
vt  0.625772 0.162114 0.000000
vt  0.641650 0.116751 0.000000
vt  0.683221 0.088716 0.000000
vt  0.734604 0.088716 0.000000
vt  0.776174 0.116751 0.000000
vt  0.792052 0.162114 0.000000
vt  0.776174 0.207477 0.000000
vt  0.734604 0.235513 0.000000
vt  0.683221 0.235513 0.000000
vt  0.641650 0.207478 0.000000
vt  0.625772 0.162114 0.000000
vt  0.641650 0.116751 0.000000
vt  0.683221 0.088716 0.000000
vt  0.734604 0.088716 0.000000
vt  0.429711 0.179385 0.000000
vt  0.092121 0.176439 0.000000
vt  0.429977 0.148841 0.000000
vt  0.092387 0.145895 0.000000
vt  0.429708 0.179657 0.000000
vt  0.092118 0.176711 0.000000
vt  0.429442 0.210201 0.000000
vt  0.091852 0.207255 0.000000
vt  0.296910 0.638274 0.000000
vt  0.341172 0.633869 0.000000
vt  0.329106 0.673564 0.000000
vt  0.293207 0.684612 0.000000
vt  0.299092 0.596632 0.000000
vt  0.332369 0.611305 0.000000
vt  0.362165 0.615993 0.000000
vt  0.343499 0.668023 0.000000
vt  0.291985 0.683609 0.000000
vt  0.301052 0.559225 0.000000
vt  0.348113 0.579977 0.000000
vt  0.252817 0.590791 0.000000
vt  0.260668 0.631529 0.000000
vt  0.293945 0.646202 0.000000
vt  0.299830 0.558222 0.000000
vt  0.334379 0.572962 0.000000
vt  0.296127 0.604560 0.000000
vt  0.307180 0.637397 0.000000
vt  0.306200 0.656094 0.000000
vt  0.295993 0.655764 0.000000
vt  0.340220 0.652044 0.000000
vt  0.361238 0.633673 0.000000
vt  0.251865 0.608965 0.000000
vt  0.285857 0.605437 0.000000
vt  0.286837 0.586740 0.000000
vt  0.297044 0.587071 0.000000
vt  0.330956 0.645121 0.000000
vt  0.302724 0.648118 0.000000
vt  0.296514 0.647810 0.000000
vt  0.297178 0.635147 0.000000
vt  0.303434 0.634564 0.000000
vt  0.331639 0.632088 0.000000
vt  0.348421 0.617851 0.000000
vt  0.262081 0.597713 0.000000
vt  0.290313 0.594716 0.000000
vt  0.296523 0.595024 0.000000
vt  0.295859 0.607687 0.000000
vt  0.289603 0.608271 0.000000
vt  0.261398 0.610746 0.000000
vt  0.347764 0.630389 0.000000
vt  0.977173 0.581070 0.000000
vt  0.963430 0.607421 0.000000
vt  0.963430 0.607421 0.000000
vt  0.920524 0.258245 0.000000
vt  0.952611 0.297962 0.000000
vt  0.952611 0.297962 0.000000
vt  0.992391 0.533402 0.000000
vt  0.977173 0.581070 0.000000
vt  0.977173 0.581070 0.000000
vt  0.952611 0.297962 0.000000
vt  0.973261 0.336232 0.000000
vt  0.973261 0.336232 0.000000
vt  1.000000 0.496278 0.000000
vt  0.992391 0.533402 0.000000
vt  0.992391 0.533402 0.000000
vt  0.973261 0.336232 0.000000
vt  0.991164 0.379085 0.000000
vt  0.991164 0.379085 0.000000
vt  0.999829 0.460206 0.000000
vt  1.000000 0.496278 0.000000
vt  1.000000 0.496278 0.000000
vt  0.991164 0.379085 0.000000
vt  0.999907 0.426007 0.000000
vt  0.999907 0.426007 0.000000
vt  0.999907 0.426007 0.000000
vt  0.999829 0.460206 0.000000
vt  0.999829 0.460206 0.000000
vt  0.879593 0.226752 0.000000
vt  0.920524 0.258245 0.000000
vt  0.855263 0.215387 0.000000
vt  0.879593 0.226752 0.000000
vt  0.955753 0.613902 0.000000
vt  0.963430 0.607421 0.000000
vt  0.535656 0.191508 0.000000
vt  0.464309 0.191508 0.000000
vt  0.464309 0.122907 0.000000
vt  0.464309 0.122907 0.000000
vt  0.535656 0.122907 0.000000
vt  0.535656 0.191508 0.000000
vt  0.535656 0.122907 0.000000
vt  0.464309 0.122907 0.000000
vt  0.464309 0.079389 0.000000
vt  0.464309 0.079389 0.000000
vt  0.535656 0.079389 0.000000
vt  0.535656 0.122907 0.000000
vt  0.535656 0.079389 0.000000
vt  0.464309 0.079389 0.000000
vt  0.464309 0.040991 0.000000
vt  0.464309 0.040991 0.000000
vt  0.535656 0.040991 0.000000
vt  0.535656 0.079389 0.000000
vt  0.535656 0.264608 0.000000
vt  0.464309 0.264608 0.000000
vt  0.464309 0.191508 0.000000
vt  0.464309 0.191508 0.000000
vt  0.535656 0.191508 0.000000
vt  0.535656 0.264608 0.000000
vt  0.464309 0.264608 0.000000
vt  0.464309 0.264608 0.000000
vt  0.535656 0.264608 0.000000
vt  0.609598 0.572658 0.000000
vt  0.592942 0.642034 0.000000
vt  0.609598 0.572658 0.000000
vt  0.738723 0.603658 0.000000
vt  0.722067 0.673034 0.000000
vt  0.592942 0.642034 0.000000
vt  0.592942 0.642034 0.000000
vt  0.609598 0.572658 0.000000
vt  0.738723 0.603658 0.000000
vt  0.795749 0.617349 0.000000
vt  0.779093 0.686725 0.000000
vt  0.722067 0.673034 0.000000
vt  0.722067 0.673034 0.000000
vt  0.738723 0.603658 0.000000
vt  0.795749 0.617349 0.000000
vt  0.795749 0.617349 0.000000
vt  0.832028 0.662746 0.000000
vt  0.779093 0.686725 0.000000
vt  0.464309 0.040991 0.000000
vt  0.499982 0.000000 0.000000
vt  0.535656 0.040991 0.000000
vt  0.962566 0.690231 0.000000
vt  0.771518 0.690231 0.000000
vt  0.962566 0.690231 0.000000
vt  0.594312 0.690231 0.000000
vt  0.594312 0.690231 0.000000
vt  0.771518 0.690231 0.000000
vt  0.559650 0.690231 0.000000
vt  0.559650 0.690231 0.000000
vt  0.580507 0.690231 0.000000
vt  0.007477 0.690231 0.000000
vt  0.559650 0.690231 0.000000
vt  0.559650 0.690231 0.000000
vt  0.580507 0.690231 0.000000
vt  0.594312 0.690231 0.000000
vt  0.594312 0.690231 0.000000
vt  0.837995 0.075057 0.000000
vt  0.868468 0.162114 0.000000
vt  0.837995 0.075057 0.000000
vt  0.868468 0.162114 0.000000
vt  0.837995 0.249172 0.000000
vt  0.868468 0.162114 0.000000
vt  0.837995 0.249172 0.000000
vt  0.758218 0.302976 0.000000
vt  0.837995 0.249172 0.000000
vt  0.758218 0.302976 0.000000
vt  0.659607 0.302976 0.000000
vt  0.758218 0.302976 0.000000
vt  0.659607 0.302976 0.000000
vt  0.579829 0.249172 0.000000
vt  0.659607 0.302976 0.000000
vt  0.579829 0.249172 0.000000
vt  0.549356 0.162114 0.000000
vt  0.579829 0.249172 0.000000
vt  0.549356 0.162114 0.000000
vt  0.579829 0.075057 0.000000
vt  0.549356 0.162114 0.000000
vt  0.579829 0.075057 0.000000
vt  0.659607 0.021253 0.000000
vt  0.579829 0.075057 0.000000
vt  0.659607 0.021253 0.000000
vt  0.758218 0.021253 0.000000
vt  0.659607 0.021253 0.000000
vt  0.758218 0.021253 0.000000
vt  0.837995 0.075057 0.000000
vt  0.758218 0.021253 0.000000
vt  0.962566 0.822633 0.000000
vt  0.962566 0.808172 0.000000
vt  0.994914 0.808172 0.000000
vt  0.994914 0.808172 0.000000
vt  0.994914 0.822633 0.000000
vt  0.962566 0.822633 0.000000
vt  0.962566 0.808172 0.000000
vt  0.962566 0.793711 0.000000
vt  0.994914 0.793711 0.000000
vt  0.994914 0.793711 0.000000
vt  0.994914 0.808172 0.000000
vt  0.962566 0.808172 0.000000
vt  0.962566 0.750316 0.000000
vt  0.962566 0.737064 0.000000
vt  0.994914 0.737064 0.000000
vt  0.994914 0.737064 0.000000
vt  0.994914 0.750316 0.000000
vt  0.962566 0.750316 0.000000
vt  0.962566 0.737064 0.000000
vt  0.962566 0.720684 0.000000
vt  0.994914 0.720684 0.000000
vt  0.994914 0.720684 0.000000
vt  0.994914 0.737064 0.000000
vt  0.962566 0.737064 0.000000
vt  0.962566 0.720684 0.000000
vt  0.962566 0.707432 0.000000
vt  0.994914 0.707432 0.000000
vt  0.994914 0.707432 0.000000
vt  0.994914 0.720684 0.000000
vt  0.962566 0.720684 0.000000
vt  0.962566 0.984359 0.000000
vt  0.962566 0.969898 0.000000
vt  0.994914 0.969898 0.000000
vt  0.994914 0.969898 0.000000
vt  0.994914 0.984359 0.000000
vt  0.962566 0.984359 0.000000
vt  0.962566 0.969898 0.000000
vt  0.962566 0.955437 0.000000
vt  0.994914 0.955437 0.000000
vt  0.994914 0.955437 0.000000
vt  0.994914 0.969898 0.000000
vt  0.962566 0.969898 0.000000
vt  0.962566 0.912247 0.000000
vt  0.962566 0.898995 0.000000
vt  0.994914 0.898995 0.000000
vt  0.994914 0.898995 0.000000
vt  0.994914 0.912247 0.000000
vt  0.962566 0.912247 0.000000
vt  0.962566 0.898995 0.000000
vt  0.962566 0.882614 0.000000
vt  0.994914 0.882614 0.000000
vt  0.994914 0.882614 0.000000
vt  0.994914 0.898995 0.000000
vt  0.962566 0.898995 0.000000
vt  0.962566 0.882614 0.000000
vt  0.962566 0.869363 0.000000
vt  0.994914 0.869363 0.000000
vt  0.994914 0.869363 0.000000
vt  0.994914 0.882614 0.000000
vt  0.962566 0.882614 0.000000
vt  0.294161 0.239839 0.000000
vt  0.159558 0.238665 0.000000
vt  0.159824 0.208121 0.000000
vt  0.159824 0.208121 0.000000
vt  0.294427 0.209295 0.000000
vt  0.294161 0.239839 0.000000
vt  0.431154 0.013965 0.000000
vt  0.429980 0.148568 0.000000
vt  0.092390 0.145622 0.000000
vt  0.092390 0.145622 0.000000
vt  0.093564 0.011019 0.000000
vt  0.431154 0.013965 0.000000
vt  0.429173 0.241017 0.000000
vt  0.294570 0.239843 0.000000
vt  0.294836 0.209299 0.000000
vt  0.294836 0.209299 0.000000
vt  0.429439 0.210474 0.000000
vt  0.429173 0.241017 0.000000
vt  0.258658 0.669872 0.000000
vt  0.258658 0.669872 0.000000
vt  0.244924 0.662857 0.000000
vt  0.244924 0.662857 0.000000
vt  0.230872 0.626841 0.000000
vt  0.230872 0.626841 0.000000
vt  0.244924 0.662857 0.000000
vt  0.244924 0.662857 0.000000
vt  0.231799 0.609161 0.000000
vt  0.249538 0.574811 0.000000
vt  0.249538 0.574811 0.000000
vt  0.263931 0.569270 0.000000
vt  0.263931 0.569270 0.000000
vt  0.263931 0.569270 0.000000
vt  0.244616 0.624983 0.000000
vt  0.245273 0.612445 0.000000
vt  0.244616 0.624983 0.000000
vt  0.294367 0.638141 0.000000
vt  0.284245 0.636195 0.000000
vt  0.288266 0.633769 0.000000
vt  0.288266 0.633769 0.000000
vt  0.294428 0.635003 0.000000
vt  0.294367 0.638141 0.000000
vt  0.284245 0.636195 0.000000
vt  0.250808 0.629133 0.000000
vt  0.260475 0.628358 0.000000
vt  0.260475 0.628358 0.000000
vt  0.288266 0.633769 0.000000
vt  0.284245 0.636195 0.000000
vt  0.250808 0.629133 0.000000
vt  0.231799 0.609161 0.000000
vt  0.245273 0.612445 0.000000
vt  0.245273 0.612445 0.000000
vt  0.260475 0.628358 0.000000
vt  0.250808 0.629133 0.000000
vt  0.231799 0.609161 0.000000
vt  0.245273 0.612445 0.000000
vt  0.231799 0.609161 0.000000
vt  0.298669 0.604693 0.000000
vt  0.308792 0.606639 0.000000
vt  0.304771 0.609065 0.000000
vt  0.304771 0.609065 0.000000
vt  0.298609 0.607831 0.000000
vt  0.298669 0.604693 0.000000
vt  0.308792 0.606639 0.000000
vt  0.342229 0.613701 0.000000
vt  0.332562 0.614476 0.000000
vt  0.332562 0.614476 0.000000
vt  0.304771 0.609065 0.000000
vt  0.308792 0.606639 0.000000
vt  0.342229 0.613701 0.000000
vt  0.332562 0.614476 0.000000
vt  0.342229 0.613701 0.000000
# 441 texture vertices

vn  -0.000000 0.034221 0.000000
vn  -0.000000 0.034221 0.000000
vn  -0.000000 0.034221 0.000000
vn  -0.000000 0.034221 0.000000
vn  -0.000000 0.034221 -0.000000
vn  0.000000 0.034221 -0.000000
vn  0.000000 0.034221 0.000000
vn  -0.000000 0.034221 -0.000000
vn  -0.000000 0.032626 -0.000000
vn  -0.000000 0.013839 -0.000000
vn  -0.000000 0.068962 -0.000000
vn  -0.000001 0.084893 0.000000
vn  -0.000000 0.004580 0.000000
vn  0.000004 0.094261 -0.000001
vn  0.000000 0.002705 -0.000000
vn  -0.000005 0.097089 0.000001
vn  -0.000001 0.097678 -0.000000
vn  0.000004 0.102101 -0.000000
vn  0.032281 0.028407 0.000000
vn  0.032281 0.028407 0.000000
vn  0.000000 -0.034221 0.000000
vn  -0.000000 -0.034221 -0.000000
vn  -0.000000 -0.034221 -0.000000
vn  -0.000000 -0.034221 -0.000000
vn  0.000000 -0.034221 0.000000
vn  0.000000 -0.034221 0.000000
vn  0.000000 -0.034221 0.000000
vn  0.000000 -0.034221 -0.000000
vn  -0.000000 -0.001895 0.000000
vn  -0.000000 -0.013839 0.000000
vn  -0.000002 -0.068962 0.000000
vn  -0.000001 -0.084311 0.000000
vn  0.000000 -0.084892 -0.000000
vn  0.000005 -0.091908 -0.000001
vn  0.000002 -0.094261 -0.000000
vn  -0.000000 -0.003836 0.000000
vn  -0.000003 -0.097089 0.000001
vn  -0.000005 -0.102101 0.000001
vn  0.032281 -0.028407 -0.000000
vn  0.032281 -0.028407 -0.000000
vn  -0.022993 0.026968 -0.027229
vn  -0.030822 0.027177 -0.016965
vn  -0.025632 0.028447 0.019459
vn  -0.021654 0.027966 0.025384
vn  -0.031595 0.027955 -0.010804
vn  -0.027872 0.028735 0.014546
vn  -0.031685 0.028508 -0.004663
vn  -0.029261 0.029061 0.008849
vn  -0.031323 0.028777 -0.000687
vn  -0.030299 0.029132 0.002147
vn  -0.013801 0.025557 0.035940
vn  -0.008182 0.025102 0.038487
vn  -0.016039 0.026340 -0.033298
vn  0.057852 -0.000000 -0.002176
vn  0.045824 -0.020876 -0.002119
vn  0.016929 -0.032703 -0.002034
vn  -0.016928 -0.032703 -0.002034
vn  -0.045824 -0.020876 -0.002119
vn  -0.057852 0.000000 -0.002176
vn  -0.054608 0.011299 -0.002054
vn  -0.016928 0.032703 -0.002034
vn  0.016928 0.032703 -0.002034
vn  0.045824 0.020876 -0.002119
vn  0.057882 0.000000 -0.001092
vn  0.045823 -0.020905 -0.001064
vn  0.016914 -0.032722 -0.001020
vn  -0.016915 -0.032722 -0.001020
vn  -0.045822 -0.020905 -0.001064
vn  -0.057882 -0.000000 -0.001092
vn  -0.054633 0.011304 -0.001030
vn  -0.016915 0.032722 -0.001020
vn  0.016915 0.032722 -0.001020
vn  0.045822 0.020905 -0.001064
vn  0.057698 -0.000000 0.004743
vn  0.045882 -0.020682 0.004714
vn  0.017045 -0.032588 0.004656
vn  -0.017046 -0.032588 0.004657
vn  -0.045882 -0.020682 0.004714
vn  -0.057698 -0.000000 0.004744
vn  -0.054466 0.011269 0.004639
vn  -0.017045 0.032588 0.004656
vn  0.017045 0.032588 0.004656
vn  0.045882 0.020682 0.004713
vn  0.057888 -0.000000 0.000753
vn  0.045841 -0.020896 0.000733
vn  0.016928 -0.032723 0.000704
vn  -0.016929 -0.032723 0.000704
vn  -0.045841 -0.020896 0.000733
vn  -0.057888 -0.000000 0.000753
vn  -0.054638 0.011305 0.000711
vn  -0.016928 0.032723 0.000704
vn  0.016928 0.032723 0.000704
vn  0.045841 0.020896 0.000733
vn  0.044573 -0.020459 -0.012918
vn  0.056353 0.000000 -0.013265
vn  0.016436 -0.031982 -0.012409
vn  -0.016435 -0.031983 -0.012409
vn  -0.044572 -0.020460 -0.012917
vn  -0.056353 0.000000 -0.013265
vn  -0.053368 0.011042 -0.012426
vn  -0.016435 0.031982 -0.012410
vn  0.016435 0.031983 -0.012410
vn  0.044573 0.020459 -0.012918
vn  0.043207 -0.019879 0.018807
vn  0.054591 0.000000 0.019270
vn  0.015947 -0.031102 0.018131
vn  -0.015947 -0.031102 0.018131
vn  -0.043208 -0.019879 0.018807
vn  -0.054591 0.000000 0.019270
vn  -0.051915 0.010742 0.018061
vn  -0.015947 0.031102 0.018131
vn  0.015947 0.031102 0.018131
vn  0.043208 0.019879 0.018807
vn  0.000000 0.000000 -0.000000
vn  0.000000 0.000000 -0.000000
vn  0.000000 0.000000 -0.000000
vn  0.000000 0.000000 0.057893
vn  0.000000 0.000000 0.057893
vn  0.000000 0.000000 0.057893
vn  0.000000 -0.000000 0.057893
vn  0.000000 -0.000000 0.057893
vn  0.000000 -0.000000 0.057893
vn  0.000000 -0.000000 0.057893
vn  -0.000000 -0.000000 0.057893
vn  0.000000 0.000000 0.057893
vn  -0.000000 0.000000 0.057893
vn  -0.000001 0.000001 0.057893
vn  -0.000000 -0.000000 0.057893
vn  0.000000 -0.000000 0.057893
vn  -0.000000 -0.000000 0.057893
vn  -0.000001 0.000001 0.057893
vn  -0.000000 0.000000 0.057893
vn  -0.000001 0.000000 0.057893
vn  -0.000000 0.000000 0.057893
vn  0.000000 -0.000000 0.057893
vn  0.000000 -0.000000 0.057893
vn  -0.000000 0.034221 0.000001
vn  -0.000000 0.034221 0.000001
vn  -0.000000 0.034221 0.000001
vn  -0.000000 0.034221 0.000001
vn  0.000000 -0.034221 0.000000
vn  0.000000 -0.034221 0.000000
vn  0.000000 -0.034221 0.000000
vn  0.000000 -0.034221 0.000000
vn  -0.001502 0.033307 -0.013207
vn  0.001135 0.018949 -0.048194
vn  -0.039205 0.014216 -0.035160
vn  -0.053789 0.007402 -0.017365
vn  0.026742 0.027549 -0.021550
vn  0.014466 0.025606 -0.035578
vn  0.011416 0.011607 -0.053251
vn  -0.027488 0.004322 -0.050423
vn  -0.050162 -0.010151 -0.023248
vn  0.050162 0.010151 -0.023248
vn  0.039813 0.010837 -0.037820
vn  0.033533 -0.013759 -0.041052
vn  -0.014466 -0.025606 -0.035578
vn  -0.026742 -0.027549 -0.021551
vn  0.053788 -0.007402 -0.017365
vn  0.054064 0.000390 -0.020693
vn  0.001503 -0.033307 -0.013208
vn  -0.005282 0.032511 -0.017282
vn  -0.045555 0.019367 -0.014242
vn  -0.047681 0.018390 -0.010500
vn  -0.033533 0.013759 -0.041052
vn  -0.027488 0.004322 -0.050423
vn  -0.001136 -0.018949 -0.048194
vn  0.005284 -0.032511 -0.017284
vn  0.045554 -0.019367 -0.014242
vn  0.047681 -0.018390 -0.010501
vn  -0.018924 0.017376 -0.046144
vn  -0.029220 0.026828 -0.020924
vn  -0.030378 0.027892 -0.014220
vn  -0.030380 0.027892 -0.014217
vn  -0.029387 0.026980 -0.020116
vn  -0.021543 0.019780 -0.042044
vn  -0.009207 0.008453 -0.055338
vn  0.018926 -0.017376 -0.046145
vn  0.029220 -0.026828 -0.020925
vn  0.030377 -0.027892 -0.014224
vn  0.030378 -0.027892 -0.014223
vn  0.029386 -0.026980 -0.020118
vn  0.021544 -0.019780 -0.042044
vn  -0.009207 0.008453 -0.055338
vn  -0.029096 -0.026760 -0.021343
vn  -0.029096 -0.026760 -0.021343
vn  -0.022411 -0.027517 -0.026119
vn  -0.022743 -0.028617 0.022148
vn  -0.022743 -0.028617 0.022148
vn  -0.023092 -0.026784 0.027662
vn  -0.031252 -0.027652 -0.013657
vn  -0.031252 -0.027652 -0.013657
vn  -0.033812 -0.026923 -0.011569
vn  -0.027063 -0.028636 0.016502
vn  -0.027063 -0.028636 0.016502
vn  -0.027229 -0.028332 0.017687
vn  -0.031404 -0.028255 -0.008976
vn  -0.031404 -0.028255 -0.008976
vn  -0.033071 -0.027841 -0.006288
vn  -0.028340 -0.028840 0.012964
vn  -0.028340 -0.028840 0.012964
vn  -0.028525 -0.028659 0.013684
vn  -0.031783 -0.028596 -0.001029
vn  -0.031783 -0.028596 -0.001029
vn  -0.031783 -0.028596 -0.001029
vn  -0.029803 -0.029164 0.005392
vn  -0.029803 -0.029164 0.005392
vn  -0.030295 -0.028903 0.006556
vn  -0.030484 -0.029083 -0.001244
vn  -0.030484 -0.029083 -0.001244
vn  -0.031774 -0.028587 0.001754
vn  -0.018355 -0.025711 0.033507
vn  -0.018355 -0.025711 0.033507
vn  -0.008182 -0.025102 0.038487
vn  -0.008182 -0.025102 0.038487
vn  -0.016038 -0.026339 -0.033299
vn  -0.016038 -0.026339 -0.033299
vn  0.038065 0.000000 0.043619
vn  0.038065 0.000000 0.043619
vn  0.038065 0.000000 0.043619
vn  0.038065 -0.000000 0.043619
vn  0.038065 -0.000000 0.043619
vn  0.038065 -0.000000 0.043619
vn  0.047585 -0.000000 0.032974
vn  0.047585 -0.000000 0.032974
vn  0.047585 -0.000000 0.032974
vn  0.047585 -0.000000 0.032974
vn  0.047585 -0.000000 0.032974
vn  0.047585 -0.000000 0.032974
vn  0.056622 -0.000000 0.012065
vn  0.056622 -0.000000 0.012065
vn  0.056622 -0.000000 0.012065
vn  0.056622 0.000000 0.012065
vn  0.056622 0.000000 0.012065
vn  0.056622 0.000000 0.012065
vn  0.013831 0.000000 0.056216
vn  0.013831 0.000000 0.056216
vn  0.013831 0.000000 0.056216
vn  0.013831 0.000000 0.056216
vn  0.013831 0.000000 0.056216
vn  0.013831 0.000000 0.056216
vn  0.000924 -0.000000 0.057885
vn  0.000924 0.000000 0.057885
vn  0.000924 0.000000 0.057885
vn  0.000690 -0.000000 -0.057889
vn  0.000690 -0.000000 -0.057889
vn  0.000690 -0.000000 -0.057889
vn  0.004445 -0.000000 -0.057722
vn  0.004445 -0.000000 -0.057722
vn  0.004445 -0.000000 -0.057722
vn  0.004445 -0.000000 -0.057722
vn  0.004445 -0.000000 -0.057722
vn  0.004445 -0.000000 -0.057722
vn  0.020803 -0.000000 -0.054026
vn  0.020803 -0.000000 -0.054026
vn  0.020803 -0.000000 -0.054026
vn  0.020803 -0.000000 -0.054026
vn  0.020803 -0.000000 -0.054026
vn  0.020803 -0.000000 -0.054026
vn  0.040161 -0.000000 -0.041698
vn  0.040161 -0.000000 -0.041698
vn  0.040161 -0.000000 -0.041698
vn  0.057319 0.000000 -0.008127
vn  0.057319 0.000000 -0.008127
vn  0.057319 0.000000 -0.008127
vn  -0.032352 0.028355 -0.001969
vn  -0.032352 0.028355 -0.001969
vn  -0.032352 0.028355 -0.001969
vn  -0.032370 0.028372 -0.000000
vn  -0.032370 0.028372 0.000000
vn  -0.032370 0.028372 0.000000
vn  -0.029630 0.025969 -0.023313
vn  -0.029630 0.025969 -0.023313
vn  -0.029630 0.025969 -0.023313
vn  -0.032369 0.028369 0.000681
vn  -0.032369 0.028369 0.000681
vn  -0.032368 0.028370 0.000681
vn  -0.026958 0.023628 0.032047
vn  -0.026958 0.023628 0.032047
vn  -0.026958 0.023628 0.032047
vn  0.000000 0.000000 0.057893
vn  0.000000 0.000000 0.057893
vn  0.000000 0.000000 0.057893
vn  0.000000 0.000000 0.057893
vn  0.000000 0.000000 0.057893
vn  0.000000 -0.000000 0.057893
vn  0.000000 -0.000000 0.057893
vn  0.000000 -0.000000 0.057893
vn  0.000000 0.000000 0.057893
vn  0.000000 -0.000000 0.057893
vn  0.000000 -0.000000 0.057893
vn  -0.000000 0.000000 0.057893
vn  0.000000 -0.000000 0.057893
vn  0.000000 -0.000000 0.057893
vn  0.000000 -0.000000 0.057893
vn  0.000000 -0.000000 0.057893
vn  0.000000 -0.000000 0.057893
vn  0.000000 -0.000000 0.057893
vn  -0.000000 -0.000000 0.057893
vn  -0.000000 -0.000000 0.057893
vn  0.000000 0.000000 0.057893
vn  0.000000 0.000000 0.057893
vn  0.000000 0.000000 0.057893
vn  0.000000 -0.000000 0.057893
vn  -0.000000 0.000000 0.057893
vn  -0.000000 0.000000 0.057893
vn  0.000000 0.000000 0.057893
vn  0.000000 0.000000 0.057893
vn  0.000000 0.000000 0.057893
vn  -0.000001 0.000000 0.057893
vn  0.054642 -0.011306 0.000000
vn  0.054642 -0.011306 0.000000
vn  0.054642 -0.011306 0.000000
vn  0.054642 -0.011306 -0.000000
vn  0.054642 -0.011306 -0.000000
vn  0.054642 -0.011306 -0.000000
vn  0.054642 0.011306 0.000000
vn  0.054642 0.011306 0.000000
vn  0.054642 0.011306 0.000000
vn  0.054642 0.011306 -0.000000
vn  0.054642 0.011306 -0.000000
vn  0.054642 0.011306 -0.000000
vn  0.032370 0.028371 -0.000000
vn  0.032370 0.028371 -0.000000
vn  0.032370 0.028371 -0.000000
vn  0.032371 0.028371 0.000000
vn  0.032371 0.028371 0.000000
vn  0.032371 0.028371 0.000000
vn  -0.000001 0.034221 0.000000
vn  -0.000001 0.034221 0.000000
vn  -0.000001 0.034221 0.000000
vn  -0.000001 0.034221 0.000000
vn  -0.000001 0.034221 0.000000
vn  -0.000001 0.034221 0.000000
vn  -0.032370 0.028372 0.000000
vn  -0.032370 0.028372 0.000000
vn  -0.032370 0.028372 0.000000
vn  -0.032370 0.028372 0.000000
vn  -0.032370 0.028372 0.000000
vn  -0.032370 0.028372 0.000000
vn  -0.054642 0.011306 -0.000000
vn  -0.054642 0.011306 -0.000000
vn  -0.054642 0.011306 -0.000000
vn  -0.054642 0.011306 0.000000
vn  -0.054642 0.011306 0.000000
vn  -0.054642 0.011306 0.000000
vn  -0.054642 -0.011306 0.000000
vn  -0.054642 -0.011306 0.000000
vn  -0.054642 -0.011306 0.000000
vn  -0.054642 -0.011306 -0.000000
vn  -0.054642 -0.011306 -0.000000
vn  -0.054642 -0.011306 -0.000000
vn  -0.032370 -0.028372 0.000000
vn  -0.032370 -0.028372 0.000000
vn  -0.032370 -0.028372 0.000000
vn  -0.032370 -0.028372 0.000000
vn  -0.032370 -0.028372 0.000000
vn  -0.032370 -0.028372 0.000000
vn  -0.000001 -0.034221 0.000000
vn  -0.000001 -0.034221 0.000000
vn  -0.000001 -0.034221 0.000000
vn  -0.000002 -0.034221 0.000000
vn  -0.000002 -0.034221 0.000000
vn  -0.000002 -0.034221 0.000000
vn  0.032370 -0.028372 -0.000000
vn  0.032370 -0.028372 -0.000000
vn  0.032370 -0.028372 -0.000000
vn  0.032370 -0.028372 -0.000000
vn  0.032370 -0.028372 -0.000000
vn  0.032370 -0.028372 -0.000000
vn  0.057893 -0.000000 0.000000
vn  0.057893 -0.000000 0.000000
vn  0.057893 -0.000000 0.000000
vn  0.057893 0.000000 0.000000
vn  0.057893 0.000000 0.000000
vn  0.057893 0.000000 0.000000
vn  -0.000000 -0.000000 -0.057893
vn  -0.000000 -0.000000 -0.057893
vn  -0.000000 -0.000000 -0.057893
vn  0.000000 -0.000000 -0.057893
vn  0.000000 -0.000000 -0.057893
vn  0.000000 -0.000000 -0.057893
vn  -0.057893 0.000000 0.000000
vn  -0.057893 0.000000 0.000000
vn  -0.057893 0.000000 0.000000
vn  -0.057893 0.000000 0.000000
vn  -0.057893 0.000000 0.000000
vn  -0.057893 0.000000 0.000000
vn  -0.054064 -0.000390 -0.020693
vn  -0.054064 -0.000389 -0.020693
vn  -0.054064 -0.000389 -0.020693
vn  -0.011416 -0.011607 -0.053251
vn  -0.011416 -0.011607 -0.053251
vn  -0.011416 -0.011607 -0.053251
vn  -0.043204 -0.017908 -0.023814
vn  -0.043203 -0.017909 -0.023815
vn  0.027488 -0.004322 -0.050423
vn  0.027488 -0.004322 -0.050423
vn  0.027488 -0.004322 -0.050423
vn  0.027488 -0.004322 -0.050423
vn  0.047681 -0.018390 -0.010501
vn  0.035788 -0.021810 -0.026634
vn  0.009208 -0.008453 -0.055338
vn  0.009208 -0.008453 -0.055338
vn  0.009208 -0.008453 -0.055338
vn  -0.056905 -0.005273 -0.005818
vn  -0.056905 -0.005273 -0.005818
vn  -0.056905 -0.005273 -0.005818
vn  -0.056862 -0.005147 -0.006520
vn  -0.056862 -0.005147 -0.006520
vn  -0.056862 -0.005147 -0.006520
vn  -0.057172 -0.004675 -0.004515
vn  -0.057172 -0.004675 -0.004515
vn  -0.057172 -0.004675 -0.004515
vn  -0.057146 -0.005035 -0.003655
vn  -0.057146 -0.005035 -0.003655
vn  -0.057146 -0.005035 -0.003655
vn  -0.055279 -0.007313 -0.011946
vn  -0.055279 -0.007313 -0.011946
vn  -0.055279 -0.007313 -0.011946
vn  -0.055330 -0.007337 -0.011665
vn  -0.055330 -0.007337 -0.011665
vn  -0.055330 -0.007337 -0.011665
vn  -0.053088 -0.011602 -0.012168
vn  -0.052991 -0.011667 -0.012409
vn  -0.052991 -0.011667 -0.012409
vn  0.056905 0.005272 -0.005818
vn  0.056905 0.005272 -0.005818
vn  0.056905 0.005272 -0.005818
vn  0.056862 0.005147 -0.006518
vn  0.056862 0.005147 -0.006518
vn  0.056862 0.005147 -0.006518
vn  0.057172 0.004675 -0.004515
vn  0.057172 0.004675 -0.004515
vn  0.057172 0.004675 -0.004515
vn  0.057146 0.005035 -0.003656
vn  0.057146 0.005035 -0.003656
vn  0.057146 0.005035 -0.003656
vn  0.055279 0.007313 -0.011946
vn  0.055330 0.007337 -0.011664
vn  0.055330 0.007337 -0.011664
# 441 vertex normals

g Plane03
s 1
f 4/4/4 3/3/3 1/1/1 2/2/2
s 0
f 7/7/7 6/6/6 5/5/5 3/3/3
f 9/9/9 10/10/10 8/8/8 7/7/7
f 10/10/10 11/11/11 13/13/13 12/12/12
f 12/12/12 13/13/13 15/15/15 14/14/14
f 17/17/17 16/16/16 14/14/14 15/15/15
f 19/19/19 20/20/20 4/4/4 2/2/2
s 1
f 41/41/41 42/42/42 11/11/11 9/9/9
f 43/43/43 44/44/44 10/10/10 12/12/12
f 42/42/42 45/45/45 13/13/13 11/11/11
f 46/46/46 43/43/43 12/12/12 14/14/14
f 45/45/45 47/47/47 15/15/15 13/13/13
f 48/48/48 46/46/46 14/14/14 16/16/16
f 47/47/47 49/49/49 17/17/17 15/15/15
f 50/50/50 48/48/48 16/16/16 18/18/18
f 49/49/49 50/50/50 18/18/18 17/17/17
f 10/10/10 44/44/44 51/51/51 52/52/52
f 24/24/24 23/23/23 22/22/22 21/21/21
s 0
f 26/26/26 21/21/21 25/25/25 27/27/27
f 29/29/29 26/26/26 28/28/28 30/30/30
f 30/30/30 33/33/33 32/32/32 31/31/31
f 33/33/33 35/35/35 34/34/34 32/32/32
f 36/36/36 34/34/34 35/35/35 37/37/37
f 39/39/39 23/23/23 24/24/24 40/40/40
f 19/19/19 39/39/39 40/40/40 20/20/20
f 2/2/2 23/23/23 39/39/39 19/19/19
f 20/20/20 40/40/40 24/24/24 4/4/4
s 8
f 65/65/65 64/64/64 54/54/54 55/55/55
f 66/66/66 65/65/65 55/55/55 56/56/56
f 67/67/67 66/66/66 56/56/56 57/57/57
f 68/68/68 67/67/67 57/57/57 58/58/58
f 69/69/69 68/68/68 58/58/58 59/59/59
f 70/70/70 69/69/69 59/59/59 60/60/60
f 72/72/72 71/71/71 61/61/61 62/62/62
f 73/73/73 72/72/72 62/62/62 63/63/63
f 64/64/64 73/73/73 63/63/63 54/54/54
f 105/105/105 64/64/64 65/65/65 104/104/104
f 104/104/104 65/65/65 66/66/66 106/106/106
f 106/106/106 66/66/66 67/67/67 107/107/107
f 107/107/107 67/67/67 68/68/68 108/108/108
f 108/108/108 68/68/68 69/69/69 109/109/109
f 109/109/109 69/69/69 70/70/70 110/110/110
f 111/111/111 71/71/71 72/72/72 112/112/112
f 112/112/112 72/72/72 73/73/73 113/113/113
f 113/113/113 73/73/73 64/64/64 105/105/105
f 95/95/95 74/74/74 75/75/75 94/94/94
f 94/94/94 75/75/75 76/76/76 96/96/96
f 96/96/96 76/76/76 77/77/77 97/97/97
f 97/97/97 77/77/77 78/78/78 98/98/98
f 98/98/98 78/78/78 79/79/79 99/99/99
f 99/99/99 79/79/79 80/80/80 100/100/100
f 101/101/101 81/81/81 82/82/82 102/102/102
f 102/102/102 82/82/82 83/83/83 103/103/103
f 103/103/103 83/83/83 74/74/74 95/95/95
s 1
f 132/132/132 128/128/128 130/130/130 131/131/131
f 134/134/134 128/128/128 132/132/132 133/133/133
f 136/136/136 128/128/128 134/134/134 135/135/135
s 8
f 95/95/95 94/94/94 85/85/85 84/84/84
f 94/94/94 96/96/96 86/86/86 85/85/85
f 96/96/96 97/97/97 87/87/87 86/86/86
f 97/97/97 98/98/98 88/88/88 87/87/87
f 98/98/98 99/99/99 89/89/89 88/88/88
f 99/99/99 100/100/100 90/90/90 89/89/89
f 101/101/101 102/102/102 92/92/92 91/91/91
f 92/92/92 102/102/102 103/103/103 93/93/93
f 103/103/103 95/95/95 84/84/84 93/93/93
f 105/105/105 104/104/104 75/75/75 74/74/74
f 104/104/104 106/106/106 76/76/76 75/75/75
f 106/106/106 107/107/107 77/77/77 76/76/76
f 107/107/107 108/108/108 78/78/78 77/77/77
f 108/108/108 109/109/109 79/79/79 78/78/78
f 109/109/109 110/110/110 80/80/80 79/79/79
f 111/111/111 112/112/112 82/82/82 81/81/81
f 112/112/112 113/113/113 83/83/83 82/82/82
f 113/113/113 105/105/105 74/74/74 83/83/83
s 2
f 140/140/140 139/139/139 137/137/137 138/138/138
s 4
f 144/144/144 142/142/142 141/141/141 143/143/143
s 1
f 163/163/163 147/147/147 148/148/148 164/164/164
f 145/145/145 149/149/149 150/150/150 162/162/162
f 165/165/165 166/166/166 152/152/152 147/147/147
f 149/149/149 154/154/154 155/155/155 150/150/150
f 150/150/150 155/155/155 151/151/151 146/146/146
f 154/154/154 159/159/159 160/160/160 155/155/155
f 161/161/161 158/158/158 157/157/157 168/168/168
f 169/169/169 401/401/401 159/159/159 170/170/170
f 172/172/172 173/173/173 174/174/174 175/175/175
f 179/179/179 180/180/180 181/181/181 182/182/182
f 176/176/176 171/171/171 172/172/172 175/175/175
f 177/177/177 184/184/184 171/171/171 176/176/176
f 179/179/179 182/182/182 183/183/183 178/178/178
s 0
f 172/172/172 171/171/171 165/165/165 163/163/163
f 173/173/173 172/172/172 163/163/163 164/164/164
f 174/174/174 173/173/173 164/164/164 145/145/145
f 179/179/179 178/178/178 156/156/156 169/169/169
f 180/180/180 179/179/179 169/169/169 170/170/170
f 181/181/181 180/180/180 170/170/170 161/161/161
f 171/171/171 184/184/184 166/166/166 165/165/165
f 1/1/1 3/3/3 5/5/5
f 6/6/6 7/7/7 8/8/8
f 9/9/9 11/11/11 10/10/10
f 16/16/16 17/17/17 18/18/18
s 1
f 53/53/53 41/41/41 9/9/9
s 0
f 22/22/22 25/25/25 21/21/21
f 27/27/27 28/28/28 26/26/26
f 29/29/29 30/30/30 31/31/31
f 37/37/37 38/38/38 36/36/36
s 1
f 31/31/31 185/185/185 186/186/186
f 187/187/187 29/29/29 31/31/31
f 30/30/30 188/188/188 189/189/189
f 190/190/190 33/33/33 30/30/30
f 32/32/32 191/191/191 192/192/192
f 193/193/193 31/31/31 32/32/32
f 33/33/33 194/194/194 195/195/195
f 196/196/196 35/35/35 33/33/33
f 34/34/34 197/197/197 198/198/198
f 199/199/199 32/32/32 34/34/34
f 35/35/35 200/200/200 201/201/201
f 202/202/202 37/37/37 35/35/35
f 36/36/36 203/203/203 204/204/204
f 205/205/205 34/34/34 36/36/36
f 37/37/37 206/206/206 207/207/207
f 208/208/208 38/38/38 37/37/37
f 38/38/38 209/209/209 210/210/210
f 211/211/211 36/36/36 38/38/38
f 212/212/212 213/213/213 30/30/30
f 30/30/30 214/214/214 215/215/215
f 216/216/216 29/29/29 217/217/217
s 0
f 218/218/218 219/219/219 220/220/220
f 221/221/221 222/222/222 223/223/223
f 224/224/224 225/225/225 226/226/226
f 227/227/227 228/228/228 229/229/229
f 230/230/230 231/231/231 232/232/232
f 233/233/233 234/234/234 235/235/235
f 236/236/236 237/237/237 238/238/238
f 239/239/239 240/240/240 241/241/241
f 23/23/23 2/2/2 242/242/242
f 243/243/243 244/244/244 23/23/23
f 245/245/245 246/246/246 4/4/4
f 4/4/4 24/24/24 247/247/247
f 248/248/248 249/249/249 250/250/250
f 251/251/251 252/252/252 253/253/253
f 254/254/254 255/255/255 256/256/256
f 257/257/257 258/258/258 259/259/259
f 260/260/260 261/261/261 262/262/262
f 263/263/263 264/264/264 265/265/265
s 8
f 266/266/266 61/61/61 71/71/71
f 71/71/71 267/267/267 268/268/268
f 71/71/71 111/111/111 269/269/269
f 270/270/270 271/271/271 71/71/71
f 81/81/81 101/101/101 272/272/272
f 273/273/273 274/274/274 81/81/81
s 1
f 136/136/136 127/127/127 128/128/128
f 129/129/129 130/130/130 128/128/128
s 8
f 91/91/91 275/275/275 276/276/276
f 277/277/277 101/101/101 91/91/91
f 81/81/81 278/278/278 279/279/279
f 280/280/280 111/111/111 81/81/81
s 0
f 281/281/281 282/282/282 118/118/118
f 118/118/118 117/117/117 283/283/283
f 284/284/284 285/285/285 119/119/119
f 119/119/119 118/118/118 286/286/286
f 287/287/287 288/288/288 120/120/120
f 120/120/120 119/119/119 289/289/289
f 290/290/290 291/291/291 121/121/121
f 121/121/121 120/120/120 292/292/292
f 293/293/293 294/294/294 122/122/122
f 122/122/122 121/121/121 295/295/295
f 296/296/296 297/297/297 123/123/123
f 123/123/123 122/122/122 298/298/298
f 299/299/299 300/300/300 124/124/124
f 124/124/124 123/123/123 301/301/301
f 302/302/302 303/303/303 125/125/125
f 125/125/125 124/124/124 304/304/304
f 305/305/305 306/306/306 126/126/126
f 126/126/126 125/125/125 307/307/307
f 308/308/308 309/309/309 117/117/117
f 117/117/117 126/126/126 310/310/310
f 311/311/311 312/312/312 313/313/313
f 314/314/314 315/315/315 316/316/316
f 317/317/317 318/318/318 319/319/319
f 320/320/320 321/321/321 322/322/322
f 323/323/323 324/324/324 325/325/325
f 326/326/326 327/327/327 328/328/328
f 329/329/329 330/330/330 331/331/331
f 332/332/332 333/333/333 334/334/334
f 335/335/335 336/336/336 337/337/337
f 338/338/338 339/339/339 340/340/340
f 341/341/341 342/342/342 343/343/343
f 344/344/344 345/345/345 346/346/346
f 347/347/347 348/348/348 349/349/349
f 350/350/350 351/351/351 352/352/352
f 353/353/353 354/354/354 355/355/355
f 356/356/356 357/357/357 358/358/358
f 359/359/359 360/360/360 361/361/361
f 362/362/362 363/363/363 364/364/364
f 365/365/365 366/366/366 367/367/367
f 368/368/368 369/369/369 370/370/370
s 16
f 371/371/371 372/372/372 373/373/373
f 374/374/374 375/375/375 376/376/376
s 32
f 377/377/377 378/378/378 379/379/379
f 380/380/380 381/381/381 382/382/382
s 64
f 383/383/383 384/384/384 385/385/385
f 386/386/386 387/387/387 388/388/388
s 1
f 163/163/163 165/165/165 147/147/147
f 162/162/162 150/150/150 146/146/146
f 153/153/153 148/148/148 389/389/389
f 390/390/390 391/391/391 153/153/153
f 157/157/157 392/392/392 393/393/393
f 394/394/394 167/167/167 157/157/157
f 158/158/158 153/153/153 395/395/395
f 396/396/396 157/157/157 158/158/158
f 156/156/156 397/397/397 398/398/398
f 399/399/399 400/400/400 156/156/156
f 168/168/168 157/157/157 167/167/167
f 169/169/169 156/156/156 402/402/402
f 403/403/403 404/404/404 178/178/178
f 178/178/178 183/183/183 405/405/405
s 0
f 406/406/406 407/407/407 408/408/408
f 409/409/409 410/410/410 411/411/411
f 412/412/412 413/413/413 414/414/414
f 415/415/415 416/416/416 417/417/417
f 418/418/418 419/419/419 420/420/420
f 421/421/421 422/422/422 423/423/423
f 424/424/424 156/156/156 178/178/178
f 178/178/178 425/425/425 426/426/426
f 427/427/427 428/428/428 429/429/429
f 430/430/430 431/431/431 432/432/432
f 433/433/433 434/434/434 435/435/435
f 436/436/436 437/437/437 438/438/438
f 439/439/439 166/166/166 184/184/184
f 184/184/184 440/440/440 441/441/441
# 231 faces

g
